{
	exportType : {
		name : 'File Type',
		type : 'list',
		item : ['csv','xml','json','json5','dsv']
	},
	csvEnclose : {
		name : 'File Type',
		type : 'bit'
	},
	maxPerFile : {
		name : 'ファイル分割',
		type : 'int',
		min     : 1,
		max     : 10000,
		message : {
			"empty"   : "を選択してください。",
			"invalid" : "が正しくありません。\n1〜10,000の間で入力してください。"
		}
	},
	savePath : {
		name : 'Save Path',
		type : 'file'
	},
	column : {
		name    : 'Column',
		type    : 'text',
		min     : 0,
		max     : 100,
		message : {
			"empty"   : "を選択してください。",
			"invalid" : "が正しくありません。"
		}
	},
	columnKey : {
		name    : 'Column (Key)',
		type    : 'text',
		min     : 0,
		max     : 100,
		message : {
			"empty"   : "を選択してください。",
			"invalid" : "が正しくありません。"
		}
	},
	columnValue : {
		name    : 'Column (Value)',
		type    : 'text',
		min     : 0,
		max     : 100,
		message : {
			"empty"   : "を選択してください。",
			"invalid" : "が正しくありません。"
		}
	},
	dataCount : {
		name    : 'Rows',
		type    : 'int',
		min     : 1,
		max     : 1000000,
		message : {
			"empty"   : "を入力してください。",
			"invalid" : "が正しくありません。"
		}
	},
	stepNo  : {
		name    : 'Step',
		type    : 'int',
		min     : 0,
		max     : 1000000,
		message : {
			"empty"   : "を入力してください。",
			"invalid" : "が正しくありません。"
		}
	},
	startNo : {
		name    : 'Start',
		type    : 'int',
		min     : 0,
		max     : 1000000,
		message : {
			"empty"   : "を入力してください。",
			"invalid" : "が正しくありません。"
		}
	},
	padding : {
		name    : '0 Padding',
		type	: 'bit'
	},
	digit   : {
		name    : 'Digit',
		type    : 'int',
		min     : 0,
		max     : 13,
		message : {
			"empty"   : "を入力してください。",
			"invalid" : "が正しくありません。"
		}
	},
	/**
	 *	主にRandom
	 */
	minNumber : {
		name    : '数値範囲・最小値',
		type    : 'int',
		message : {
			"empty"   : "を入力してください。",
			"invalid" : "が正しくありません。"
		}
	},
	maxNumber : {
		name    : '数値範囲・最大値',
		type    : 'int',
		message : {
			"empty"   : "を入力してください。",
			"invalid" : "が正しくありません。"
		}
	},
	charLength : {
		name    : '桁数',
		type    : 'int',
		message : {
			"empty"   : "を入力してください。",
			"invalid" : "が正しくありません。"
		}
	},
	charTypeNumber : {
		name    : '文字タイプ - 数字',
		type    : 'check',
		message : {
			"empty"   : "を入力してください。",
			"invalid" : "が正しくありません。"
		}
	},
	charTypeAlpha : {
		name    : '文字タイプ - アルファベット',
		type    : 'check',
		message : {
			"empty"   : "を入力してください。",
			"invalid" : "が正しくありません。"
		}
	},
	charTypeSymbol : {
		name    : '文字タイプ - 記号',
		type    : 'check',
		message : {
			"empty"   : "を入力してください。",
			"invalid" : "が正しくありません。"
		}
	},
	minCharLength : {
		name    : '最小桁数',
		type    : 'int',
		min     : 1,
		max     : 32,
		message : {
			"empty"   : "を入力してください。",
			"invalid" : "が正しくありません。"
		}
	},
	maxCharLength : {
		name    : '最大桁数',
		type    : 'int',
		min     : 1,
		max     : 32,
		message : {
			"empty"   : "を入力してください。",
			"invalid" : "が正しくありません。"
		}
	},
	digitAlign : {
		name    : '桁揃え',
		type    : 'bit',
		message : {
			"empty"   : "を入力してください。",
			"invalid" : "が正しくありません。"
		}
	},
	checkDigitType : {
		name    : 'Check digit - Type',
		type    : 'int',
		min     : 0,
		max     : 12,
		message : {
			"empty"   : "を入力してください。",
			"invalid" : "が正しくありません。"
		}
	},
	checkDigitWeight : {
		name    : 'Check digit - Weight',
		type    : 'regex',
		pattern : '^[0-9]{1,}$',
		message : {
			"empty"   : "を入力してください。",
			"invalid" : "が正しくありません。"
		}
	},
	charSize : {
		name    : '文字の大小',
		type    : 'int',
		min     : 0,
		max     : 2,
		message : {
			"empty"   : "を入力してください。",
			"invalid" : "が正しくありません。"
		}
	},
	symbolAscii : {
		name    : '記号の範囲 - ASCII',
		type    : 'check',
		message : {
			"empty"   : "を入力してください。",
			"invalid" : "が正しくありません。"
		}
	},
	symbolAny : {
		name    : '記号の範囲 - 任意',
		type    : 'check',
		message : {
			"empty"   : "を入力してください。",
			"invalid" : "が正しくありません。"
		}
	},
	symbolItems : {
		name    : '記号の範囲 - 任意の記号',
		type    : 'text',
		min     : 1,
		max     : 100,
		message : {
			"empty"   : "を入力してください。",
			"invalid" : "が正しくありません。"
		}
	},
	duplicate : {
		name    : '値の重複',
		type    : 'bit',
		message : {
			"empty"   : "を選択してください。",
			"invalid" : "が正しくありません。"
		}
	},
	/**
	 *	主にRegex
	 */
	regexPattern : {
		name    : 'パターン',
		type    : 'text',
		min     : 1,
		max     : 100,
		message : {
			"empty"   : "を入力してください。",
			"invalid" : ""
		}
	},
	/**
	 *	主にCrypto
	 */
	criptoSource : {
		name    : '暗号化対象',
		type    : 'list',
		item    : ['column', 'file'],		
		message : {
			"empty"   : "を選択してください。",
			"invalid" : ""
		}
	},
	targetColumn : {
		name    : '既存のColumn',
		type    : 'int',		
		message : {
			"empty"   : "を選択してください。",
			"invalid" : ""
		}
	},
	targetFilePath : {
		name    : 'ファイル',
		type    : 'filePath',
		message : {
			"empty"   : "を選択してください。",
			"invalid" : ""
		}
	},
	cryptoAlgorithm : {
		name    : 'アルゴリズム',
		type    : 'int',
		min     : 0,
		max     : 50,
		message : {
			"empty"   : "を選択してください。",
			"invalid" : ""
		}
	},
	outEncoding : {
		name    : '文字列エンコーディング',
		type    : 'int',
		min     : 0,
		max     : 2,
		message : {
			"empty"   : "を選択してください。",
			"invalid" : ""
		}
	},
	/**
	 *	主にAnything
	 */
	sourceType : {
		name    : '任意の値の元データ',
		type    : 'list',
		item    : ['input','file'],
		message : {
			"empty"   : "を選択してください。",
			"invalid" : "が正しくありません。"
		}
	},
	srcItem : {
		name    : '任意の値',
		type    : 'text',
		min     : 1,
		max     : 1000,
		message : {
			"empty"   : "を入力してください。",
			"invalid" : "が正しくありません。"
		}
	},
	srcFilePath : {
		name    : '任意のデータファイルパス',
		type    : 'filePath'
	},
	delimiter : {
		name    : 'Delimiter',
		type    : 'text',
		min     : 1,
		max     : 1,
		message : {
			"empty"   : "を入力してください。",
			"invalid" : "が正しくありません。"
		}
	},
	infoType : {
		name : 'info Type',
		type : 'list',
		item : ['fullName','lastName','firstName',
				'gender','age','genderRatio',
				'zip','address',
				'datetime','date','time']
	},
	hasHeader : {
		name    : 'header行あり',
		type    : 'bit'
	},
	keepRow : {
		name    : '行の関係を保持',
		type    : 'bit'
	},
	/**
	 *	主に個人情報
	 ------------------------------------------------*/
	fullNameCharType : {
		name : "姓名・Data Type",
		type : 'int',
		min  : 0,
		max  : 3
	},
	fullNameDelimiter : {
		name : "姓名・区切り文字",
		type : 'int',
		min  : 0,
		max  : 2
	},
	lastNameCharType : {
		name : "苗字・Data Type",
		type : 'int',
		min  : 0,
		max  : 3
	},
	firstNameCharType : {
		name : "名前・Data Type",
		type : 'int',
		min  : 0,
		max  : 3
	},
	genderValueType : {
		name : "性別・Value Type",
		type : 'int',
		min  : 0,
		max  : 4
	},
	genderMin : {
		name : "年齢範囲・最小",
		type : 'int',
		min  : 0,
		max  : 120
	},
	genderMax : {
		name : "年齢範囲・最大",
		type : 'int',
		min  : 0,
		max  : 120
	},
	maleRate : {
		name : "男女比・男性",
		type : 'int',
		min  : 0,
		max  : 100
	},
	femaleRate : {
		name : "男女比・女性",
		type : 'int',
		min  : 0,
		max  : 100
	},
	
	/**
	 *	主に住所
	 */
	addrItem : {
		name : '住所項目',
		type : 'list',
		item : ['pref','city','town','number','building']
	},
	
	zip3 : {
		name : '郵便番号・上３桁',
		type : 'check'
	},
	zip4 : {
		name : '郵便番号・下４桁',
		type : 'check'
	},
	zipSeparater : {
		name : '郵便番号・区切り文字',
		type : 'int',
		min     : 0,
		max     : 2,
		message : {
			"empty"   : "を入力してください。",
			"invalid" : "が正しくありません。"
		}
	},
	addrSeparater : {
		name : '住所・区切り文字',
		type : 'int',
		min     : 0,
		max     : 2,
		message : {
			"empty"   : "を入力してください。",
			"invalid" : "が正しくありません。"
		}
	},
	prefChar : {
		name : '住所・都道府県',
		type : 'int',
		min     : 0,
		max     : 4,
		message : {
			"empty"   : "を入力してください。",
			"invalid" : "が正しくありません。"
		}
	},
	cityChar : {
		name : '住所・市区町村',
		type : 'int',
		min     : 0,
		max     : 4,
		message : {
			"empty"   : "を入力してください。",
			"invalid" : "が正しくありません。"
		}
	},
	townChar : {
		name : '住所・町・字',
		type : 'int',
		min     : 0,
		max     : 3,
		message : {
			"empty"   : "を入力してください。",
			"invalid" : "が正しくありません。"
		}
	},
	numberChar : {
		name : '住所・番地',
		type : 'int',
		min     : 0,
		max     : 1,
		message : {
			"empty"   : "を入力してください。",
			"invalid" : "が正しくありません。"
		}
	},
	buildingChar : {
		name : '住所・建物',
		type : 'int',
		min     : 0,
		max     : 3,
		message : {
			"empty"   : "を入力してください。",
			"invalid" : "が正しくありません。"
		}
	},		
	
	mailPattern : {
		name    : 'Pattern',
		type    : 'text',
		min     : 1,
		max     : 100,
		message : {
			"empty"   : "を入力してください。",
			"invalid" : ""
		}
	},
	
	/**
	 *	主に電話番号
	 */
	phoneItem : {
		name    : '番号',
		type    : 'list',
		item	: ['all', 'area', 'local', 'directory']
	},
	phoneDelimiter : {
		name    : '番号',
		type    : 'int',
		min     : 0,
		max     : 2
	},
	rateLandline : {
		name    : '固定電話率',
		type    : 'int',
		min     : 0,
		max     : 100,
	},
	
	/**
	 *	主に日付日時
	 */
	dateFrom : {
		name : 'Date From',
		type : 'date'
	},
	dateTo : {
		name : 'Date To',
		type : 'date'
	},
	timeFrom : {
		name : 'Time From',
		type : 'time'
	},
	timeTo : {
		name : 'Time To',
		type : 'time'
	},
	dateLocation : {
		name : 'Location',
		type : 'int',
		min  : 0,
		max  : 1
	},
	dateFormat : {
		name : 'Datetime Format',
		type : 'text',
		min  : 1,
		max  : 100
	},
	dateSort : {
		name : 'Sort',
		type : 'int',
		min  : 0,
		max  : 2
	},
	
	/**
	 * 主にパターンデータの保存
	 **/
	groupName : {
		name : 'Patterns group name',
		type : 'text',
		min  : 1,
		max  : 100
	},
	setPatternName : {
		name : 'Patterns set name',
		type : 'text',
		min  : 1,
		max  : 100
	},
	/**
	 * 主に長文
	 **/
	minTextRange : {
		name : 'バイト数範囲 Min bytes',
		type : 'int',
		min  : 0,
		max  : 1696000,
		message : {
			"empty"   : "を入力してください。",
			"invalid" : "が正しくありません。"
		}
	},
	maxTextRange : {
		name : 'バイト数範囲 Max bytes',
		type : 'int',
		min  : 0,
		max  : 1696000,
		message : {
			"empty"   : "を入力してください。",
			"invalid" : "が正しくありません。"
		}
	},
	longTextFile : {
		name : '長文ファイル',
		type : 'file'
	}
}